$HW_Init call=SW_Init
acc=read_write,cbk:*
$HW_Close call=SW_Close
acc=read_write,cbk:*
$HW_Rio_GSM_Request call=SW_Rio_GSM_Request size=32
acc=read_write,cbk:*
$HW_Rio_IO_Request call=SW_Rio_IO_Request size=32
acc=read_write,cbk:*
$HW_Rio_Message_Request call=SW_Rio_Message_Request size=32
acc=read_write,cbk:*
$HW_Rio_Doorbell_Request call=SW_Rio_Doorbell_Request size=32
acc=read_write,cbk:*
$HW_Rio_Conf_Request call=SW_Rio_Conf_Request size=32
acc=read_write,cbk:*
$HW_Rio_Snoop_Response call=SW_Rio_Snoop_Response size=32
acc=read_write,cbk:*
$HW_Rio_Set_Mem_Data call=SW_Rio_Set_Mem_Data size=32
acc=read_write,cbk:*
$HW_Rio_Get_Mem_Data call=SW_Rio_Get_Mem_Data size=32
acc=read_write,cbk:*
$HW_Rio_Set_Conf_Reg call=SW_Rio_Set_Conf_Reg size=32
acc=read_write,cbk:*
$HW_Rio_Get_Conf_Reg call=SW_Rio_Get_Conf_Reg size=32
acc=read_write,cbk:*
$HW_Rio_Start_Reset call=SW_Rio_Start_Reset
acc=read_write,cbk:*
$HW_Rio_Init call=SW_Rio_Init size=32
acc=read_write,cbk:*
$HW_Rio_Clock_Edge call=SW_Rio_Clock_Edge
acc=read_write,cbk:*
$HW_Rio_Get_Pins call=SW_Rio_Get_Pins
acc=read_write,cbk:*
$HW_RIO_Model_Create_Instance call=SW_RIO_Model_Create_Instance size=32
acc=read_write,cbk:*
$HW_Put_Data_Pe call=SW_Put_Data_Pe
acc=read_write,cbk:*
$HW_Get_Data_Pe call=SW_Get_Data_Pe size=32
acc=read_write,cbk:*
$HW_Add_Register_Handlers call=SW_Add_Register_Handlers
acc=read_write,cbk:*

$HW_RIO_Serial_Model_Create_Instance call=SW_RIO_Serial_Model_Create_Instance size=32
acc=read_write,cbk:*
$HW_Rio_Serial_Init call=SW_Rio_Serial_Init size=32
acc=read_write,cbk:*
$HW_Rio_Serial_Get_Pins call=SW_Rio_Serial_Get_Pins
acc=read_write,cbk:*

$HW_Rio_Enable_RND_Idle_Generator call=SW_Rio_Enable_RND_Idle_Generator size=32
acc=read_write,cbk:*
$HW_Rio_Force_EOP_Insertion call=SW_Rio_Force_EOP_Insertion size=32
acc=read_write,cbk:*

$HW_Rio_Clock_Edge_New call=SW_Rio_Clock_Edge_New
acc=read_write,cbk:*
$HW_Rio_Get_Pins_New call=SW_Rio_Get_Pins_New
acc=read_write,cbk:*

$HW_Rio_Set_Retry_Generator call=SW_Rio_Set_Retry_Generator size=32
acc=read_write,cbk:*

