$init_vcd						call=init_vcd_call		misc=init_vcd_misc
$add_clock		check=add_clock_check		call=add_clock_call
$add_input		check=add_input_check		call=add_input_call
$add_output		check=add_output_check		call=add_output_call
$add_bidir		check=add_bidir_check		call=add_bidir_call
$add_enable		check=add_enable_check		call=add_enable_call
$drive_clocks						call=drive_clocks_call		misc=drive_clocks_misc
$drive_signals						call=drive_signals_call		misc=drive_signals_misc
$incr_err_count						call=incr_err_count_call
$set_options						call=set_options_call
