 0456 08a0
 0457 08a1
 0458 08a2
 0459 08a3
 045a 08a4
 045b 08a5
 045c 08a6
 045d 08a7
 045e 08a8
 045f 08a9
 0460 08aa
 0461 08ab
 0462 08ac
 0463 08ad
 0464 08ae
 0465 08af
 0466 08b0
 0467 08b1
 0468 08b2
 0469 08b3
 046a 08b4
 046b 08b5
 046c 08b6
 046d 08b7
 046e 08b8
 046f 08b9
 0470 08ba
 0471 08bb
 0472 08bc
 0473 08bd
